{
  "project_info": {
    "project_number": "303463704003",
    "project_id": "tradein-tver-appriaser",
    "storage_bucket": "tradein-tver-appriaser.appspot.com"
  },
  "client": [
    {
      "client_info": {
        "mobilesdk_app_id": "1:303463704003:android:0a16b3d4fe54d3b2330976",
        "android_client_info": {
          "package_name": "ru.tradeintver.appraiser"
        }
      },
      "oauth_client": [
        {
          "client_id": "303463704003-mrlrp2uui099fdqmnv43ejjgj7mato6r.apps.googleusercontent.com",
          "client_type": 3
        }
      ],
      "api_key": [
        {
          "current_key": "AIzaSyDH3ixrt4rqVPTJw38hELh1vydrRLHjnv8"
        }
      ],
      "services": {
        "appinvite_service": {
          "other_platform_oauth_client": [
            {
              "client_id": "303463704003-mrlrp2uui099fdqmnv43ejjgj7mato6r.apps.googleusercontent.com",
              "client_type": 3
            }
          ]
        }
      }
    }
  ],
  "configuration_version": "1"
}